{
    "KPlugin": {
        "BugReportUrl": "https://bugs.kde.org/enter_bug.cgi?product=systemsettings&component=kcm_smb",
        "Description": "Credentials used to access SMB shares",
        "Description[ar]": "معلومات الصلاحيات المستخدمة للوصول إلى ملفات سامبا الشبكية",
        "Description[bg]": "Идентификационни данни за достъп до SMB споделяния",
        "Description[ca@valencia]": "Credencials utilitzades per a accedir a les comparticions SMB",
        "Description[ca]": "Credencials usades per a accedir a les comparticions SMB",
        "Description[cs]": "Přihlašovací údaje pro přístup k úložišti SMB",
        "Description[en_GB]": "Credentials used to access SMB shares",
        "Description[es]": "Credenciales que se usan para acceder a los recursos compartidos SMB",
        "Description[eu]": "SMB partekatzeetara sartzeko egiaztagiriak",
        "Description[fi]": "Käyttäjätiedot SMB-jakoihin pääsemiseksi",
        "Description[fr]": "Identifiants utilisés pour accéder aux partages « SMB »",
        "Description[ia]": "Credentiales usate per acceder al partes SMB",
        "Description[it]": "Credenziali utilizzate per accedere alle condivisioni SMB",
        "Description[ka]": "SMB გაზიარებულებთან წვდომის მომხმარებელი და პაროლი",
        "Description[nl]": "Gebruikte credentials voor toegang tot SMB shares",
        "Description[nn]": "Brukardata brukt til å få tilgang til SMB-ressursar",
        "Description[sl]": "Poverilnice uporabljene za dostop do skupnih diskov SMB",
        "Description[tr]": "SMB paylaşımlarına erişmek için kullanılan kimlik bilgileri",
        "Description[uk]": "Реєстраційні дані для доступу до спільних ресурсів SMB",
        "Description[x-test]": "xxCredentials used to access SMB sharesxx",
        "Description[zh_TW]": "用以存取 SMB 共享硬碟的認證資訊",
        "Icon": "preferences-system-network-share-windows",
        "Id": "smb",
        "Name": "Windows Shares",
        "Name[ar]": "مشاركات وندوز",
        "Name[bg]": "Споделяне с Windows",
        "Name[ca@valencia]": "Recursos compartits de Windows",
        "Name[ca]": "Recursos compartits de Windows",
        "Name[cs]": "Sdílené disky systému Microsoft Windows",
        "Name[en_GB]": "Windows Shares",
        "Name[es]": "Recursos compartidos de Windows",
        "Name[eu]": "«Windows»ek partekatutakoak",
        "Name[fi]": "Windows-jaot",
        "Name[fr]": "Partage Windows",
        "Name[ia]": "Areas Compartite de Windows",
        "Name[it]": "Condivisioni Windows",
        "Name[ka]": "Windows-ის ზიარები",
        "Name[nl]": "Windows-netwerken",
        "Name[nn]": "Delte Windows-ressursar",
        "Name[sl]": "Skupni diski Windows",
        "Name[tr]": "Windows Paylaşımları",
        "Name[uk]": "Спільні ресурси Windows",
        "Name[x-test]": "xxWindows Sharesxx",
        "Name[zh_TW]": "Windows 共享硬碟"
    },
    "X-DocPath": "kcontrol5/smb/index.html",
    "X-KDE-Keywords": "SMB,SAMBA,SMB client,Windows network,LAN,Network,neighborhood,Server,Broadcast,WINS,Share,Login,Passwords",
    "X-KDE-Keywords[ar]": "SMB,سامبا,زبون سامبا,شبكة ويندز,شبكة محلية,شبكة,الجوار,خادم,نشر,ويندوز,مشاركة,ولوج,كلمات سر",
    "X-KDE-Keywords[az]": "SMB,SAMBA,SMB client,Windows network,LAN,Network,neighborhood,Server,Broadcast,WINS,Share,Login,Passwords SMB, SAMBA, SMB müştəri, Windows şəbəkəsi, LAN, Şəbəkə, qonşuluq, Server,Yayım, WINS, Paylaş, Giriş, Şifrələr",
    "X-KDE-Keywords[be@latin]": "SMB,SAMBA,Klijent SMB,Sietka Windows,LAN,Sietka,Sietkavaje asiaroddzie,Siervier,Transliacyja,WINS,Ahuĺnyja resursy,Lahin,Paroli",
    "X-KDE-Keywords[be]": "SMB,SAMBA,Кліент SMB,Сетка Windows,LAN,Сетка,Сеткавае асяроддзе,Сервер,Трансляцыя,WINS,Агульныя рэсурсы,Лагін,Паролі",
    "X-KDE-Keywords[bg]": "SMB,SAMBA,SMB клиент,Мрежа на Windows,LAN,Мрежа,neighborhood,Server,Broadcast,WINS,Споделяния,Влизане,Пароли",
    "X-KDE-Keywords[bs]": "SMB,SAMBA,SMB klijent,Vindovs mreža,LAN,Mreža,komšiluk,Server,Emitovanje,WINS,Dijeljenje,Prijavljivanje,Lozinke",
    "X-KDE-Keywords[ca@valencia]": "SMB,SAMBA,Client SMB,Xarxa Windows,LAN,Xarxa,veïnat,Servidor,Difusió,WINS,Compartició,Connexió,Contrasenyes",
    "X-KDE-Keywords[ca]": "SMB,SAMBA,Client SMB,Xarxa Windows,LAN,Xarxa,veïnat,Servidor,Difusió,WINS,Compartició,Connexió,Contrasenyes",
    "X-KDE-Keywords[cs]": "SMB,SAMBA,klient SMB,Síť Windows,LAN,Síť,okolí,Server,Broadcast,WINS,Úložiště,Přihlášení,Hesla",
    "X-KDE-Keywords[cy]": "SMB,SAMBA,dibynnydd SMB,Rhwydwaith Windows,LAN,Rhwydwaith,cymdogaeth,Gweinydd,Darllediad,WINS,Rhanniad,Mewngofnodi,Cyfrineiriau",
    "X-KDE-Keywords[da]": "SMB,SAMBA,SMB-klient,Windows netværk,LAN,netværk,nabolag,Server,Broadcast,WINS,Share,Login,adgangskoder",
    "X-KDE-Keywords[de]": "SMB-Client,Windows-Netzwerk,Netzwerk,Netzumgebung,Netzwerkumgebung,Umgebung,Freigabe,Anmeldung,Passwörter",
    "X-KDE-Keywords[el]": "SMB,SAMBA,SMB client,Windows network,LAN,Network,neighborhood,Server,Broadcast,WINS,Share,Login,Passwords",
    "X-KDE-Keywords[en_GB]": "SMB,SAMBA,SMB client,Windows network,LAN,Network,neighborhood,Server,Broadcast,WINS,Share,Login,Passwords",
    "X-KDE-Keywords[es]": "SMB,SAMBA,Cliente SMB,Red de Windows,LAN,Red,entorno de red,Servidor,Emisión,WINS,Recurso compartido,Inicio de sesión,Contraseñas",
    "X-KDE-Keywords[et]": "SMB,SAMBA,SMB klient,Windowsi võrk,LAN,Võrk,naabrus,Server,Leviedastus,Broadcast,WINS,Jagatud ressurss,Sisselogimine,Paroolid",
    "X-KDE-Keywords[eu]": "SMB,SAMBA,SMB bezero,Windows partekatze,LAN,Sare,auzoa,Zerbitzari,Igorpen,WINS,Partekatze,Saio,Pasahitzak",
    "X-KDE-Keywords[fi]": "SMB,SAMBA,SMB client,SMB-asiakas,SMB-ohjelma,Windows-verkko,LAN,Verkko,ympäristö,Palvelin,Broadcast,Yleislähetys,WINS,Jako,Kirjautuminen,Salasanat",
    "X-KDE-Keywords[fr]": "SMB, SAMBA,client SMB, réseau Windows, LAN, réseau, voisinage,Serveur, diffusion, WINS, partages, connexion, mots de passe",
    "X-KDE-Keywords[gd]": "SMB,SAMBA,SMB client,Windows network,LAN,Network,neighborhood,Server,Broadcast,WINS,Share,Login,Passwords,cliant SMB,lìonra Windows,lìonra,nàbaidheachd,nàbaidhean,frithealaiche,craoladh,co-roinneadh,clàradh a-steach,clàraich a-steach,facal-faire,faclan-faire",
    "X-KDE-Keywords[gl]": "SMB,SAMBA,cliente SMB,rede de Windows,LAN,rede,veciñanza,servidor, retransmisión,WINS,compartición,compartir,acceso,contrasinais",
    "X-KDE-Keywords[hu]": "SMB,SAMBA,SMB kliens,Windows hálózat,LAN,Hálózat,szomszédszág,Kiszolgáló,Üzenetszórás,WINS,Megosztás,Bejelentkezés,Jelszavak",
    "X-KDE-Keywords[ia]": "SMB,SAMBA,Cliente SMB,rete de Windows,LAN,rete,vicinitate,Servitor,Transmission,WINS,Compartite,Authentication,Contrasignos",
    "X-KDE-Keywords[id]": "SMB,SAMBA,SMB client,Windows network,LAN,Network,neighborhood,Server,Broadcast,WINS,Share,Login,Passwords",
    "X-KDE-Keywords[ie]": "SMB,SAMBA,Cliente SMB,Rete de Windows,LAN,Rete,neighborhood,Servitor,Broadcast,WINS,Partite,Session,Login,Contrasignes",
    "X-KDE-Keywords[is]": "SMB,SAMBA,SMB-biðlari,Windows-netkerfi,LAN,Netkerfi,nágrenni,miðlari, þjónn,Útvörpun,WINS,deila,Innskráning,Lykilorð",
    "X-KDE-Keywords[it]": "SMB,SAMBA,client SMB,rete di Windows,LAN,Rete,vicinanza,Server,Broadcast,WINS,Share,Login,Password",
    "X-KDE-Keywords[ka]": "SMB,SAMBA,SMB client,Windows network,LAN,Network,neighborhood,Server,Broadcast,WINS,Share,Login,Passwords",
    "X-KDE-Keywords[ko]": "SMB,SAMBA,SMB client,Windows network,LAN,Network,neighborhood,Server,Broadcast,WINS,Share,Login,Passwords,삼바,윈도우,윈도우 네트워크,네트워크 환경,내 네트워크 환경,로그인,공유,암호,비밀번호",
    "X-KDE-Keywords[lt]": "SMB,SAMBA,SMB klientas,SMB kliento programa,Windows tinklas,LAN,tinklas,tinklo aplinka,kaimynystė,Serveris,Transliavimas,WINS,Bendrinti,Bendrinimas,Viešinys,Viesinys,Viešiniai,Viesiniai,Prisijungti,Prisijungimas,Slaptažodžiai,Slaptazodziai",
    "X-KDE-Keywords[my]": "SMB,SAMBA,SMB client,Windows network,LAN,Network,neighborhood,Server,Broadcast,WINS,Share,Login,Passwords",
    "X-KDE-Keywords[nb]": "SMB,SAMBA,SMB-klient,Windows-nettverk,LAN,Nettverk,nabolag,Tjener,Kringkasting,WINS,Ressurs,Login,Passord",
    "X-KDE-Keywords[nl]": "SMB,SAMBA,SMB-client,Windows-netwerk,LAN,netwerk,nabije omgeving,server,broadcast,WINS,delen,aanmelden,wachtwoorden",
    "X-KDE-Keywords[nn]": "SMB,SAMBA,SMB-klient,Windows-nettverk,LAN,nettverk,lokalnett,tenar,server,kringkasting,WINS,ressurs,innlogging,brukarnamn,passord",
    "X-KDE-Keywords[pa]": "ਐਸਐਮਬੀ,ਸਾਂਬਾ,ਸਾਂਬਾ ਕਲਾਈਂਟ,ਵਿੰਡੋਜ਼ ਨੈੱਟਵਰਕ,ਲਾਨ,ਨੈੱਟਵਰਕ,ਗੁਆਂਢ,ਸਰਵਰ,ਬਰਾਡਕਾਸਟ,ਵਿਨਜ਼,ਸਾਂਝ,ਸ਼ੇਅਰ,ਲਾਗਇਨ,ਪਾਸਵਰਡ",
    "X-KDE-Keywords[pl]": "SMB,SAMBA,Klient SMB,Sieć Windows, LAN,Sieć,otoczenie,Serwer,Broadcast,WINS,Udostępnianie,Współdzielenie,Login,Hasła",
    "X-KDE-Keywords[pt]": "SMB,SAMBA,cliente de SMB,rede Windows,LAN,Rede,vizinhança,Servidor,Difusão,WINS,Partilha,Utilizador,Senhas",
    "X-KDE-Keywords[pt_BR]": "SMB,SAMBA,Cliente de SMB,Rede Windows,LAN,Rede,vizinhança,Servidor,Difusão,WINS,Compartilhamento,Autenticação,Senhas",
    "X-KDE-Keywords[ro]": "SMB,SAMBA,client SMB,rețea Windows,LAN,rețea,vecinătate,informații sistem,server,difuzare,rețea locală,wins,partajare,autentificare,parole",
    "X-KDE-Keywords[ru]": "SMB,SAMBA,SMB client,Windows network,LAN,Network,neighborhood,Server,Broadcast,WINS,Share,Login,Passwords,клиент SMB,сеть Windows,сеть,соседи,широковещание,совместный доступ,логин,имя пользователя,пароль",
    "X-KDE-Keywords[sk]": "SMB,SAMBA,SMB klient,Sieť Windows,LAN,Sieť,okolie,Server,Broadcast,WINS,Zdieľanie,Login,Heslá",
    "X-KDE-Keywords[sl]": "SMB,SAMBA,Odjemalec SMB,omrežje Windows,LAN,Omrežje,soseska,Strežnik,Vsesmerno oddajanje,WINS,Deljenje,Souporaba,Prijava,Gesla",
    "X-KDE-Keywords[sr@ijekavian]": "SMB,SAMBA,SMB client,Windows network,LAN,Network,neighborhood,Server,Broadcast,WINS,Share,Login,Passwords,СМБ,Самба,СМБ клијент,виндоуз мрежа,ЛАН,мрежа,суседство,сервер,емитовање,ВИНС,дељење,пријава,лозинка",
    "X-KDE-Keywords[sr@ijekavianlatin]": "SMB,SAMBA,SMB client,Windows network,LAN,Network,neighborhood,Server,Broadcast,WINS,Share,Login,Passwords,SMB,Samba,SMB klijent,windows mreža,LAN,mreža,susedstvo,server,emitovanje,WINS,deljenje,prijava,lozinka",
    "X-KDE-Keywords[sr@latin]": "SMB,SAMBA,SMB client,Windows network,LAN,Network,neighborhood,Server,Broadcast,WINS,Share,Login,Passwords,SMB,Samba,SMB klijent,windows mreža,LAN,mreža,susedstvo,server,emitovanje,WINS,deljenje,prijava,lozinka",
    "X-KDE-Keywords[sr]": "SMB,SAMBA,SMB client,Windows network,LAN,Network,neighborhood,Server,Broadcast,WINS,Share,Login,Passwords,СМБ,Самба,СМБ клијент,виндоуз мрежа,ЛАН,мрежа,суседство,сервер,емитовање,ВИНС,дељење,пријава,лозинка",
    "X-KDE-Keywords[sv]": "SMB,SAMBA,SMB klient,Windows nätverk,LAN,Nätverk,grannskap,Server,Utsändning,WINS,Dela,Inloggning,Lösenord",
    "X-KDE-Keywords[ta]": "SMB,SAMBA,SMB client,Windows network,LAN,Network,neighborhood,Server,Broadcast,WINS,Share,Login,Passwords,விண்டோஸ்,கடவுச்சொற்கள்,பிணையம்,இணைப்பு,நுழைவு,பகிர்வு",
    "X-KDE-Keywords[tg]": "SMB,SAMBA,мизоҷи SMB,шабакаи Windows,LAN,Шабака,ҳамҳудудӣ, Хизматрасон,Пахшкунӣ,WINS,Мубодила,Воридшавӣ,Ниҳонвожаҳо",
    "X-KDE-Keywords[tok]": "SMB,SAMBA,ilo SMB,Windows,linluwi,LAN,ilo linluwi,nimi len",
    "X-KDE-Keywords[tr]": "SMB,SAMBA,SMB istemcisi,Windows ağı,LAN,Ağ,komşu,Sunucu,Yayın,WINS,Paylaşım,Giriş,Parolalar",
    "X-KDE-Keywords[uk]": "SMB,SAMBA,SMB client,Windows network,LAN,Network,neighborhood,Server,Broadcast,WINS,Share,Login,Passwords,клієнт,віндоус,віндовс,віндовз,оточення,локальна,сервер,трансляція,ресурс,спільний,пароль,вхід,реєстрація",
    "X-KDE-Keywords[vi]": "SMB,SAMBA,SMB client,Windows network,LAN,Network,neighborhood,Server,Broadcast,WINS,Share,Login,Passwords,trình khách SMB,mạng Windows,mạng,lân cận,Máy chủ,Quảng bá,Chia sẻ,Đăng nhập,Mật khẩu",
    "X-KDE-Keywords[x-test]": "xxSMBxx,xxSAMBAxx,xxSMB clientxx,xxWindows networkxx,xxLANxx,xxNetworkxx,xxneighborhoodxx,xxServerxx,xxBroadcastxx,xxWINSxx,xxSharexx,xxLoginxx,xxPasswordsxx",
    "X-KDE-Keywords[zh_CN]": "SMB,SAMBA,SMB client,Windows network,LAN,Network,neighborhood,Server,Broadcast,WINS,Share,Login,Passwords,SMB 客户端,Windows 网络,网络,网上邻居,服务器,广播,共享,登录,密码",
    "X-KDE-Keywords[zh_TW]": "SMB,SAMBA,SMB client,Windows network,LAN,Network,neighborhood,Server,Broadcast,WINS,Share,Login,Passwords",
    "X-KDE-ParentApp": "kcontrol",
    "X-KDE-System-Settings-Parent-Category": "networksettings"
}
